simulation/qsim/classes.msim.vcd
$comment
	File created using the following command:
		vcd file classes.msim.vcd -direction
$end
$date
	Thu Dec 28 22:07:22 2023
$end
$version
	ModelSim Version 10.5b
$end
$timescale
	1ps
$end

$scope module ex05_vhd_vec_tst $end
$var wire 1 ! a $end
$var wire 1 " b $end
$var wire 1 # c $end
$var wire 1 $ d $end
$var wire 1 % sel1 $end
$var wire 1 & sel2 $end
$var wire 1 ' y $end

$scope module i1 $end
$var wire 1 ( gnd $end
$var wire 1 ) vcc $end
$var wire 1 * unknown $end
$var wire 1 + devoe $end
$var wire 1 , devclrn $end
$var wire 1 - devpor $end
$var wire 1 . ww_devoe $end
$var wire 1 / ww_devclrn $end
$var wire 1 0 ww_devpor $end
$var wire 1 1 ww_a $end
$var wire 1 2 ww_b $end
$var wire 1 3 ww_c $end
$var wire 1 4 ww_d $end
$var wire 1 5 ww_sel1 $end
$var wire 1 6 ww_sel2 $end
$var wire 1 7 ww_y $end
$var wire 1 8 \~QUARTUS_CREATED_GND~I_combout\ $end
$var wire 1 9 \b~input_o\ $end
$var wire 1 : \sel2~input_o\ $end
$var wire 1 ; \c~input_o\ $end
$var wire 1 < \d~input_o\ $end
$var wire 1 = \sel1~input_o\ $end
$var wire 1 > \a~input_o\ $end
$var wire 1 ? \y~0_combout\ $end
$var wire 1 @ \ALT_INV_d~input_o\ $end
$var wire 1 A \ALT_INV_c~input_o\ $end
$var wire 1 B \ALT_INV_b~input_o\ $end
$var wire 1 C \ALT_INV_sel2~input_o\ $end
$var wire 1 D \ALT_INV_a~input_o\ $end
$var wire 1 E \ALT_INV_sel1~input_o\ $end
$upscope $end
$upscope $end
$enddefinitions $end
#0
$dumpvars
0!
0"
1#
0$
1%
1&
0'
0(
1)
x*
1+
1,
1-
1.
1/
10
01
02
13
04
15
16
07
x8
09
1:
1;
0<
1=
0>
0?
1@
0A
1B
0C
1D
0E
$end
#20000
1!
11
1>
0D
#30000
1"
12
19
0B
#40000
0!
01
0>
1D
#60000
1!
0"
11
02
09
1>
0D
1B
#80000
0!
01
0>
1D
#90000
1"
0%
0&
12
05
06
0:
0=
19
0B
1E
1C
#100000
1!
11
1>
0D
1?
17
1'
#120000
0!
0"
01
02
09
0>
1D
1B
0?
07
0'
#140000
1!
11
1>
0D
1?
17
1'
#150000
1"
12
19
0B
#160000
0!
1%
01
15
1=
0>
1D
0E
#180000
1!
0"
11
02
09
1>
0D
1B
#200000
0!
01
0>
1D
#210000
1"
12
19
0B
#220000
1!
11
1>
0D
#230000
0%
05
0=
1E
#240000
0!
0"
01
02
09
0>
1D
1B
0?
07
0'
#260000
1!
11
1>
0D
1?
17
1'
#270000
1"
12
19
0B
#280000
0!
01
0>
1D
0?
07
0'
#300000
1!
0"
11
02
09
1>
0D
1B
1?
17
1'
#320000
0!
01
0>
1D
0?
07
0'
#330000
1"
12
19
0B
#340000
1!
11
1>
0D
1?
17
1'
#360000
0!
0"
01
02
09
0>
1D
1B
0?
07
0'
#370000
1&
16
1:
0C
#380000
1!
11
1>
0D
#390000
1"
12
19
0B
1?
17
1'
#400000
0!
01
0>
1D
#420000
1!
0"
11
02
09
1>
0D
1B
0?
07
0'
#430000
0&
06
0:
1C
1?
17
1'
#440000
0!
01
0>
1D
0?
07
0'
#450000
1"
12
19
0B
#460000
1!
11
1>
0D
1?
17
1'
#480000
0!
0"
01
02
09
0>
1D
1B
0?
07
0'
#500000
1!
11
1>
0D
1?
17
1'
#510000
1"
12
19
0B
#520000
0!
01
0>
1D
0?
07
0'
#540000
1!
0"
11
02
09
1>
0D
1B
1?
17
1'
#560000
0!
01
0>
1D
0?
07
0'
#570000
1"
12
19
0B
#580000
1!
11
1>
0D
1?
17
1'
#600000
0!
0"
01
02
09
0>
1D
1B
0?
07
0'
#620000
1!
11
1>
0D
1?
17
1'
#630000
1"
12
19
0B
#640000
0!
01
0>
1D
0?
07
0'
#660000
1!
0"
11
02
09
1>
0D
1B
1?
17
1'
#670000
x&
x%
x6
x5
x=
x:
xC
xE
x?
x7
x'
#680000
0!
01
0>
1D
#690000
1"
12
19
0B
#700000
1!
11
1>
0D
#720000
0!
0"
01
02
09
0>
1D
1B
#740000
1!
11
1>
0D
#750000
1"
12
19
0B
#760000
0!
01
0>
1D
#780000
1!
0"
11
02
09
1>
0D
1B
#800000
0!
01
0>
1D
#810000
1"
12
19
0B
#820000
1!
11
1>
0D
#840000
0!
0"
01
02
09
0>
1D
1B
#860000
1!
11
1>
0D
#870000
1"
12
19
0B
#880000
0!
01
0>
1D
#900000
1!
0"
11
02
09
1>
0D
1B
#920000
0!
01
0>
1D
#930000
1"
12
19
0B
#940000
1!
11
1>
0D
#960000
0!
0"
01
02
09
0>
1D
1B
#970000
0&
0%
06
05
0=
0:
1C
1E
0?
07
0'
#980000
1!
11
1>
0D
1?
17
1'
#990000
1"
12
19
0B
